main/java/com/application/calculator/Factorialization.class
main/java/com/application/calculator/Division.class
main/java/com/application/calculator/Multiplication.class
main/java/com/application/calculator/Subtraction.class
main/java/com/application/calculator/Addition.class
main/java/com/application/calculator/Calculator.class
main/java/com/application/calculator/Operation.class
